%YAML 1.1
%TAG !u! tag:unity3d.com,2011:
--- !u!1045 &1
EditorBuildSettings:
  m_ObjectHideFlags: 0
  serializedVersion: 2
  m_Scenes:
  - enabled: 1
    path: Assets/Main Menu.unity
    guid: fe474cf293d955b4185df22b7989cdc3
  - enabled: 1
    path: Assets/IntroScenes/IntroScene 01.unity
    guid: c8f7592a40066e144b4c0c72b08718a3
  - enabled: 1
    path: Assets/Forest Stage/ForestScene.unity
    guid: 4e1fa08263cdcee45b7ee95756b69db1
  - enabled: 1
    path: Assets/Maze Stage/Maze.unity
    guid: 2e070bb22b58f904f9c47e2aa332958a
  - enabled: 1
    path: Assets/GameOver Scene.unity
    guid: a5db01e32984f8c4a8bf73ac725a79a6
  - enabled: 1
    path: Assets/OutroScene/OutroScene.unity
    guid: 8d39f4d7e0956e74b975c59bdc969300
  - enabled: 1
    path: Assets/CreditsScene/Credits.unity
    guid: df20debd7e6250146a67f8b7ac763a18
